{
	"info": {
		"_postman_id": "1458d2c8-936f-4faa-b2b1-ae4cc61dd087",
		"name": "Capstone 2 -Backend",
		"schema": "https://schema.getpostman.com/json/collection/v2.1.0/collection.json",
		"_exporter_id": "13442267"
	},
	"item": [
		{
			"name": "User-Collection",
			"item": [
				{
					"name": "register user",
					"request": {
						"method": "POST",
						"header": [],
						"body": {
							"mode": "raw",
							"raw": "{\r\n    \"email\": \"john.doe@email.com\",\r\n    \"password\": \"pass1234\"\r\n}",
							"options": {
								"raw": {
									"language": "json"
								}
							}
						},
						"url": {
							"raw": "{{url}}/users/regi",
							"host": [
								"{{url}}"
							],
							"path": [
								"users",
								"regi"
							]
						}
					},
					"response": []
				},
				{
					"name": "login user",
					"request": {
						"method": "POST",
						"header": [],
						"body": {
							"mode": "raw",
							"raw": "{\r\n    \"email\":\"john.doe@email.com\",\r\n    \"password\":\"ef4677\"\r\n}",
							"options": {
								"raw": {
									"language": "json"
								}
							}
						},
						"url": {
							"raw": "{{url}}/users/login",
							"host": [
								"{{url}}"
							],
							"path": [
								"users",
								"login"
							]
						}
					},
					"response": []
				},
				{
					"name": "set user access",
					"request": {
						"auth": {
							"type": "bearer",
							"bearer": [
								{
									"key": "token",
									"value": "{{admin}}",
									"type": "string"
								}
							]
						},
						"method": "PUT",
						"header": [],
						"body": {
							"mode": "raw",
							"raw": "{\r\n    \"userId\":\"63207622c9957a224f9901ed\",\r\n    \"isAdmin\": false\r\n}",
							"options": {
								"raw": {
									"language": "json"
								}
							}
						},
						"url": {
							"raw": "{{url}}/users/access",
							"host": [
								"{{url}}"
							],
							"path": [
								"users",
								"access"
							]
						}
					},
					"response": []
				},
				{
					"name": "user details",
					"protocolProfileBehavior": {
						"disableBodyPruning": true
					},
					"request": {
						"auth": {
							"type": "bearer",
							"bearer": [
								{
									"key": "token",
									"value": "{{admin}}",
									"type": "string"
								}
							]
						},
						"method": "GET",
						"header": [],
						"body": {
							"mode": "raw",
							"raw": "",
							"options": {
								"raw": {
									"language": "json"
								}
							}
						},
						"url": {
							"raw": "{{url}}/users/details/",
							"host": [
								"{{url}}"
							],
							"path": [
								"users",
								"details",
								""
							]
						}
					},
					"response": []
				},
				{
					"name": "user detail",
					"request": {
						"auth": {
							"type": "bearer",
							"bearer": [
								{
									"key": "token",
									"value": "{{admin}}",
									"type": "string"
								}
							]
						},
						"method": "POST",
						"header": [],
						"body": {
							"mode": "raw",
							"raw": "{\r\n    \"userId\":\"63207622c9957a224f9901ed\"\r\n}",
							"options": {
								"raw": {
									"language": "json"
								}
							}
						},
						"url": {
							"raw": "{{url}}/users/details",
							"host": [
								"{{url}}"
							],
							"path": [
								"users",
								"details"
							]
						}
					},
					"response": []
				},
				{
					"name": "change password",
					"request": {
						"auth": {
							"type": "bearer",
							"bearer": [
								{
									"key": "token",
									"value": "eyJhbGciOiJIUzI1NiIsInR5cCI6IkpXVCJ9.eyJpZCI6IjYzMjg0MDdkMjRjY2JmOGZlYzY4NzgwMSIsImVtYWlsIjoiam9obi5kb2VAZW1haWwuY29tIiwiaXNBZG1pbiI6ZmFsc2UsImlhdCI6MTY2MzU4MzkxNH0.i8Dy2hQqzsNccO0pJKZI-BK0XeTZ-oJLeuP1QQa8W98",
									"type": "string"
								}
							]
						},
						"method": "POST",
						"header": [],
						"body": {
							"mode": "raw",
							"raw": "{\r\n    \"password\":\"pass1234\",\r\n    \"newPassword\":\"pass5678\",\r\n    \"confirmNewPassword\":\"pass5678\"\r\n}",
							"options": {
								"raw": {
									"language": "json"
								}
							}
						},
						"url": {
							"raw": "{{url}}/users/change-password",
							"host": [
								"{{url}}"
							],
							"path": [
								"users",
								"change-password"
							]
						}
					},
					"response": []
				},
				{
					"name": "request password reset",
					"request": {
						"auth": {
							"type": "bearer",
							"bearer": [
								{
									"key": "token",
									"value": "",
									"type": "string"
								}
							]
						},
						"method": "POST",
						"header": [],
						"body": {
							"mode": "raw",
							"raw": "{\r\n    \"email\":\"john.doe@email.com\"\r\n}",
							"options": {
								"raw": {
									"language": "json"
								}
							}
						},
						"url": {
							"raw": "{{url}}/users/request-password-reset",
							"host": [
								"{{url}}"
							],
							"path": [
								"users",
								"request-password-reset"
							]
						}
					},
					"response": []
				}
			]
		},
		{
			"name": "Product-Collection",
			"item": [
				{
					"name": "create product",
					"request": {
						"auth": {
							"type": "bearer",
							"bearer": [
								{
									"key": "token",
									"value": "{{ronel}}",
									"type": "string"
								}
							]
						},
						"method": "POST",
						"header": [],
						"body": {
							"mode": "formdata",
							"formdata": [
								{
									"key": "name",
									"value": "Nokia 3310",
									"contentType": "",
									"type": "text"
								},
								{
									"key": "description",
									"value": "Strongest 2g Phone ever existed",
									"contentType": "",
									"type": "text"
								},
								{
									"key": "price",
									"value": "5000",
									"contentType": "",
									"type": "text"
								},
								{
									"key": "image",
									"type": "file",
									"src": "/C:/Users/4/Desktop/product_images/nokia3310img2.jpg"
								},
								{
									"key": "quantity",
									"value": "8",
									"type": "text"
								}
							]
						},
						"url": {
							"raw": "{{url}}/products/",
							"host": [
								"{{url}}"
							],
							"path": [
								"products",
								""
							]
						}
					},
					"response": []
				},
				{
					"name": "product re-stock",
					"request": {
						"auth": {
							"type": "bearer",
							"bearer": [
								{
									"key": "token",
									"value": "{{admin}}",
									"type": "string"
								}
							]
						},
						"method": "POST",
						"header": [],
						"body": {
							"mode": "raw",
							"raw": "{\r\n    \"productId\":\"63273d73243702de8ef6098e\",\r\n    \"quantity\": 5\r\n}",
							"options": {
								"raw": {
									"language": "json"
								}
							}
						},
						"url": {
							"raw": "{{url}}/products/re-stock",
							"host": [
								"{{url}}"
							],
							"path": [
								"products",
								"re-stock"
							]
						}
					},
					"response": []
				},
				{
					"name": "update product",
					"request": {
						"auth": {
							"type": "bearer",
							"bearer": [
								{
									"key": "token",
									"value": "{{admin}}",
									"type": "string"
								}
							]
						},
						"method": "PUT",
						"header": [],
						"body": {
							"mode": "formdata",
							"formdata": [
								{
									"key": "productId",
									"value": "6328427024ccbf8fec68780e",
									"type": "text"
								},
								{
									"key": "name",
									"value": "Nokia 3310 Updated",
									"type": "text"
								},
								{
									"key": "description",
									"value": "Strongest lived 2g phone updated description with new picture",
									"type": "text"
								},
								{
									"key": "price",
									"value": "5000",
									"type": "text"
								},
								{
									"key": "quantity",
									"value": "5",
									"type": "text"
								},
								{
									"key": "isActive",
									"value": "true",
									"type": "text"
								},
								{
									"key": "image",
									"type": "file",
									"src": "/C:/Users/4/Desktop/product_images/nokia3310.jpg"
								}
							]
						},
						"url": {
							"raw": "{{url}}/products/update",
							"host": [
								"{{url}}"
							],
							"path": [
								"products",
								"update"
							]
						}
					},
					"response": []
				},
				{
					"name": "product delete",
					"request": {
						"auth": {
							"type": "bearer",
							"bearer": [
								{
									"key": "token",
									"value": "{{admin}}",
									"type": "string"
								}
							]
						},
						"method": "PATCH",
						"header": [],
						"body": {
							"mode": "raw",
							"raw": "{\r\n    \"productId\":\"6328427024ccbf8fec68780e\"  \r\n}",
							"options": {
								"raw": {
									"language": "json"
								}
							}
						},
						"url": {
							"raw": "{{url}}/products/delete",
							"host": [
								"{{url}}"
							],
							"path": [
								"products",
								"delete"
							]
						}
					},
					"response": []
				},
				{
					"name": "all products",
					"request": {
						"auth": {
							"type": "bearer",
							"bearer": [
								{
									"key": "token",
									"value": "",
									"type": "string"
								}
							]
						},
						"method": "GET",
						"header": [],
						"url": {
							"raw": "{{url}}/products/",
							"host": [
								"{{url}}"
							],
							"path": [
								"products",
								""
							]
						}
					},
					"response": []
				},
				{
					"name": "product",
					"request": {
						"auth": {
							"type": "bearer",
							"bearer": [
								{
									"key": "token",
									"value": "",
									"type": "string"
								}
							]
						},
						"method": "GET",
						"header": [],
						"url": {
							"raw": "{{url}}/products/63273d73243702de8ef6098e",
							"host": [
								"{{url}}"
							],
							"path": [
								"products",
								"63273d73243702de8ef6098e"
							]
						}
					},
					"response": []
				}
			]
		},
		{
			"name": "Order-Collection",
			"item": [
				{
					"name": "new order",
					"request": {
						"auth": {
							"type": "bearer",
							"bearer": [
								{
									"key": "token",
									"value": "{{carlene}}",
									"type": "string"
								}
							]
						},
						"method": "POST",
						"header": [],
						"body": {
							"mode": "raw",
							"raw": "{ \r\n    \"products\":[\r\n        {\r\n            \"productId\":\"63273d73243702de8ef6098e\",\r\n            \"price\": 70000,\r\n            \"quantity\": 1,\r\n            \"imgPath\": \"images\\\\products\\\\1663516019206-iphone13ProMax.jpg\"\r\n        },\r\n        {\r\n            \"productId\":\"63273da4243702de8ef60990\",\r\n            \"price\": 65000,\r\n            \"quantity\": 3,\r\n            \"imgPath\": \"images\\\\products\\\\1663516068761-samsungS22Ultra.png\"\r\n        }  \r\n    ]\r\n}\r\n",
							"options": {
								"raw": {
									"language": "json"
								}
							}
						},
						"url": {
							"raw": "{{url}}/orders/",
							"host": [
								"{{url}}"
							],
							"path": [
								"orders",
								""
							]
						}
					},
					"response": []
				},
				{
					"name": "order cancelled",
					"request": {
						"auth": {
							"type": "bearer",
							"bearer": [
								{
									"key": "token",
									"value": "eyJhbGciOiJIUzI1NiIsInR5cCI6IkpXVCJ9.eyJpZCI6IjYzMjA3NjJmYzk5NTdhMjI0Zjk5MDFmMSIsImVtYWlsIjoiY2FybGVuZS5zb2xpbWFuQGdtYWlsLmNvbSIsImlzQWRtaW4iOmZhbHNlLCJpYXQiOjE2NjMyNTA1NTV9.nU1-Kig39ux-aKqsND9-OVqBLwQBd06Z1EQmg_TAX_Y",
									"type": "string"
								}
							]
						},
						"method": "POST",
						"header": [],
						"body": {
							"mode": "raw",
							"raw": "{\r\n   \"orderId\":\"632337dd092fc834efd6e449\"\r\n}",
							"options": {
								"raw": {
									"language": "json"
								}
							}
						},
						"url": {
							"raw": "{{url}}/orders/cancelled",
							"host": [
								"{{url}}"
							],
							"path": [
								"orders",
								"cancelled"
							]
						}
					},
					"response": []
				},
				{
					"name": "all orders",
					"request": {
						"auth": {
							"type": "bearer",
							"bearer": [
								{
									"key": "token",
									"value": "{{ronel}}",
									"type": "string"
								}
							]
						},
						"method": "GET",
						"header": [],
						"url": {
							"raw": "{{url}}/orders/",
							"host": [
								"{{url}}"
							],
							"path": [
								"orders",
								""
							]
						}
					},
					"response": []
				},
				{
					"name": "order",
					"protocolProfileBehavior": {
						"disableBodyPruning": true
					},
					"request": {
						"auth": {
							"type": "bearer",
							"bearer": [
								{
									"key": "token",
									"value": "{{admin}}",
									"type": "string"
								}
							]
						},
						"method": "GET",
						"header": [],
						"body": {
							"mode": "raw",
							"raw": "{\r\n    \"userId\": \"63207622c9957a224f9901ed\",\r\n    \"products\":[\r\n        {\r\n            \"productId\": \"6323145ea91e3711819e376c\",\r\n            \"price\": 70000,\r\n            \"quantity\": 2,\r\n            \"imgPath\": \"images\\\\products\\\\1663243358563-iphone13ProMax.jpg\"\r\n        },\r\n        {\r\n            \"productId\":\"632314ef04c2c741c04977c9\",\r\n            \"price\":65000,\r\n            \"quantity\": 3,\r\n            \"imgPath\": \"images\\\\products\\\\1663243503075-samsungS22Ultra.png\"\r\n        }\r\n    ]\r\n}",
							"options": {
								"raw": {
									"language": "json"
								}
							}
						},
						"url": {
							"raw": "{{url}}/orders/632755fe3398e9ea4d873187",
							"host": [
								"{{url}}"
							],
							"path": [
								"orders",
								"632755fe3398e9ea4d873187"
							]
						}
					},
					"response": []
				}
			]
		},
		{
			"name": "Cart-Collection",
			"item": [
				{
					"name": "add product to cart",
					"request": {
						"auth": {
							"type": "bearer",
							"bearer": [
								{
									"key": "token",
									"value": "{{carlene}}",
									"type": "string"
								}
							]
						},
						"method": "POST",
						"header": [],
						"body": {
							"mode": "raw",
							"raw": "{\r\n   \r\n    \"products\":[\r\n        {\r\n            \"productId\":\"63273d73243702de8ef6098e\",\r\n            \"price\": 70000,\r\n            \"quantity\": 1,\r\n            \"imgPath\": \"images\\\\products\\\\1663516019206-iphone13ProMax.jpg\"\r\n        }\r\n    ]\r\n}",
							"options": {
								"raw": {
									"language": "json"
								}
							}
						},
						"url": {
							"raw": "{{url}}/cart/",
							"host": [
								"{{url}}"
							],
							"path": [
								"cart",
								""
							]
						}
					},
					"response": []
				},
				{
					"name": "remove product to cart",
					"request": {
						"auth": {
							"type": "bearer",
							"bearer": [
								{
									"key": "token",
									"value": "{{carlene}}",
									"type": "string"
								}
							]
						},
						"method": "POST",
						"header": [],
						"body": {
							"mode": "raw",
							"raw": "{\r\n    \"productId\":\"63273de9243702de8ef60992\"  \r\n}",
							"options": {
								"raw": {
									"language": "json"
								}
							}
						},
						"url": {
							"raw": "{{url}}/cart/remove",
							"host": [
								"{{url}}"
							],
							"path": [
								"cart",
								"remove"
							]
						}
					},
					"response": []
				},
				{
					"name": "subtract product quantity",
					"request": {
						"auth": {
							"type": "bearer",
							"bearer": [
								{
									"key": "token",
									"value": "{{ronel}}",
									"type": "string"
								}
							]
						},
						"method": "POST",
						"header": [],
						"body": {
							"mode": "raw",
							"raw": " {\r\n    \"productId\":\"63273da4243702de8ef60990\",\r\n    \"quantity\": 1\r\n}\r\n ",
							"options": {
								"raw": {
									"language": "json"
								}
							}
						},
						"url": {
							"raw": "{{url}}/cart/subtract",
							"host": [
								"{{url}}"
							],
							"path": [
								"cart",
								"subtract"
							]
						}
					},
					"response": []
				},
				{
					"name": "cart checkout",
					"request": {
						"auth": {
							"type": "bearer",
							"bearer": [
								{
									"key": "token",
									"value": "{{carlene}}",
									"type": "string"
								}
							]
						},
						"method": "POST",
						"header": [],
						"url": {
							"raw": "{{url}}/cart/checkOut",
							"host": [
								"{{url}}"
							],
							"path": [
								"cart",
								"checkOut"
							]
						}
					},
					"response": []
				},
				{
					"name": "view cart",
					"request": {
						"auth": {
							"type": "bearer",
							"bearer": [
								{
									"key": "token",
									"value": "{{carlene}}",
									"type": "string"
								}
							]
						},
						"method": "GET",
						"header": [],
						"url": {
							"raw": "{{url}}/cart/viewAll",
							"host": [
								"{{url}}"
							],
							"path": [
								"cart",
								"viewAll"
							]
						}
					},
					"response": []
				}
			]
		}
	]
}